{
    "AND": {
        "ISO2": "AD",
        "ISO3": "AND",
        "DIGITS": "020",
        "ISO-3166-2": "ISO 3166-2:AD",
        "en": "Andorra",
        "zh": "安道尔",
        "Taiwan": "安道爾",
        "Hongkong": "安道爾",
        "Memo": ""
    },
    "ARE": {
        "ISO2": "AE",
        "ISO3": "ARE",
        "DIGITS": "784",
        "ISO-3166-2": "ISO 3166-2:AE",
        "en": "United Arab Emirates",
        "zh": "阿拉伯联合酋长国",
        "Taiwan": "阿聯",
        "Hongkong": "阿聯酋",
        "Memo": ""
    },
    "AFG": {
        "ISO2": "AF",
        "ISO3": "AFG",
        "DIGITS": "004",
        "ISO-3166-2": "ISO 3166-2:AF",
        "en": "Afghanistan",
        "zh": "阿富汗",
        "Taiwan": "阿富汗",
        "Hongkong": "阿富汗",
        "Memo": ""
    },
    "ATG": {
        "ISO2": "AG",
        "ISO3": "ATG",
        "DIGITS": "028",
        "ISO-3166-2": "ISO 3166-2:AG",
        "en": "Antigua and Barbuda",
        "zh": "安提瓜和巴布达",
        "Taiwan": "安提瓜和巴布達",
        "Hongkong": "安提瓜和巴布達",
        "Memo": ""
    },
    "AIA": {
        "ISO2": "AI",
        "ISO3": "AIA",
        "DIGITS": "660",
        "ISO-3166-2": "ISO 3166-2:AI",
        "en": "Anguilla",
        "zh": "安圭拉",
        "Taiwan": "英屬安圭拉",
        "Hongkong": "安圭拉島",
        "Memo": ""
    },
    "ALB": {
        "ISO2": "AL",
        "ISO3": "ALB",
        "DIGITS": "008",
        "ISO-3166-2": "ISO 3166-2:AL",
        "en": "Albania",
        "zh": "阿尔巴尼亚",
        "Taiwan": "阿爾巴尼亞",
        "Hongkong": "阿爾巴尼亞",
        "Memo": ""
    },
    "ARM": {
        "ISO2": "AM",
        "ISO3": "ARM",
        "DIGITS": "051",
        "ISO-3166-2": "ISO 3166-2:AM",
        "en": "Armenia",
        "zh": "亚美尼亚",
        "Taiwan": "亞美尼亞",
        "Hongkong": "亞美尼亞",
        "Memo": ""
    },
    "AGO": {
        "ISO2": "AO",
        "ISO3": "AGO",
        "DIGITS": "024",
        "ISO-3166-2": "ISO 3166-2:AO",
        "en": "Angola",
        "zh": "安哥拉",
        "Taiwan": "安哥拉",
        "Hongkong": "安哥拉",
        "Memo": ""
    },
    "ATA": {
        "ISO2": "AQ",
        "ISO3": "ATA",
        "DIGITS": "010",
        "ISO-3166-2": "ISO 3166-2:AQ",
        "en": "Antarctica",
        "zh": "南极洲",
        "Taiwan": "南極洲",
        "Hongkong": "南極洲",
        "Memo": ""
    },
    "ARG": {
        "ISO2": "AR",
        "ISO3": "ARG",
        "DIGITS": "032",
        "ISO-3166-2": "ISO 3166-2:AR",
        "en": "Argentina",
        "zh": "阿根廷",
        "Taiwan": "阿根廷",
        "Hongkong": "阿根廷",
        "Memo": ""
    },
    "ASM": {
        "ISO2": "AS",
        "ISO3": "ASM",
        "DIGITS": "016",
        "ISO-3166-2": "ISO 3166-2:AS",
        "en": "American Samoa",
        "zh": "美属萨摩亚",
        "Taiwan": "美屬薩摩亞",
        "Hongkong": "美屬薩摩亞",
        "Memo": ""
    },
    "AUT": {
        "ISO2": "AT",
        "ISO3": "AUT",
        "DIGITS": "040",
        "ISO-3166-2": "ISO 3166-2:AT",
        "en": "Austria",
        "zh": "奥地利",
        "Taiwan": "奧地利",
        "Hongkong": "奧地利",
        "Memo": ""
    },
    "AUS": {
        "ISO2": "AU",
        "ISO3": "AUS",
        "DIGITS": "036",
        "ISO-3166-2": "ISO 3166-2:AU",
        "en": "Australia",
        "zh": "澳大利亚",
        "Taiwan": "澳洲",
        "Hongkong": "澳洲",
        "Memo": ""
    },
    "ABW": {
        "ISO2": "AW",
        "ISO3": "ABW",
        "DIGITS": "533",
        "ISO-3166-2": "ISO 3166-2:AW",
        "en": "Aruba",
        "zh": "阿鲁巴",
        "Taiwan": "阿魯巴",
        "Hongkong": "阿魯巴",
        "Memo": ""
    },
    "ALA": {
        "ISO2": "AX",
        "ISO3": "ALA",
        "DIGITS": "248",
        "ISO-3166-2": "ISO 3166-2:AX",
        "en": "Åland Islands",
        "zh": "奥兰群岛",
        "Taiwan": "奧蘭群島",
        "Hongkong": "亞蘭群島",
        "Memo": ""
    },
    "AZE": {
        "ISO2": "AZ",
        "ISO3": "AZE",
        "DIGITS": "031",
        "ISO-3166-2": "ISO 3166-2:AZ",
        "en": "Azerbaijan",
        "zh": "阿塞拜疆",
        "Taiwan": "亞塞拜然",
        "Hongkong": "阿塞拜疆",
        "Memo": ""
    },
    "BIH": {
        "ISO2": "BA",
        "ISO3": "BIH",
        "DIGITS": "070",
        "ISO-3166-2": "ISO 3166-2:BA",
        "en": "Bosnia and Herzegovina",
        "zh": "波斯尼亚和黑塞哥维那",
        "Taiwan": "波赫",
        "Hongkong": "波黑",
        "Memo": ""
    },
    "BRB": {
        "ISO2": "BB",
        "ISO3": "BRB",
        "DIGITS": "052",
        "ISO-3166-2": "ISO 3166-2:BB",
        "en": "Barbados",
        "zh": "巴巴多斯",
        "Taiwan": "巴貝多",
        "Hongkong": "巴巴多斯",
        "Memo": ""
    },
    "BGD": {
        "ISO2": "BD",
        "ISO3": "BGD",
        "DIGITS": "050",
        "ISO-3166-2": "ISO 3166-2:BD",
        "en": "Bangladesh",
        "zh": "孟加拉国",
        "Taiwan": "孟加拉",
        "Hongkong": "孟加拉",
        "Memo": ""
    },
    "BEL": {
        "ISO2": "BE",
        "ISO3": "BEL",
        "DIGITS": "056",
        "ISO-3166-2": "ISO 3166-2:BE",
        "en": "Belgium",
        "zh": "比利时",
        "Taiwan": "比利時",
        "Hongkong": "比利時",
        "Memo": ""
    },
    "BFA": {
        "ISO2": "BF",
        "ISO3": "BFA",
        "DIGITS": "854",
        "ISO-3166-2": "ISO 3166-2:BF",
        "en": "Burkina Faso",
        "zh": "布基纳法索",
        "Taiwan": "布吉納法索",
        "Hongkong": "布基納法索",
        "Memo": ""
    },
    "BGR": {
        "ISO2": "BG",
        "ISO3": "BGR",
        "DIGITS": "100",
        "ISO-3166-2": "ISO 3166-2:BG",
        "en": "Bulgaria",
        "zh": "保加利亚",
        "Taiwan": "保加利亞",
        "Hongkong": "保加利亞",
        "Memo": ""
    },
    "BHR": {
        "ISO2": "BH",
        "ISO3": "BHR",
        "DIGITS": "048",
        "ISO-3166-2": "ISO 3166-2:BH",
        "en": "Bahrain",
        "zh": "巴林",
        "Taiwan": "巴林",
        "Hongkong": "巴林",
        "Memo": ""
    },
    "BDI": {
        "ISO2": "BI",
        "ISO3": "BDI",
        "DIGITS": "108",
        "ISO-3166-2": "ISO 3166-2:BI",
        "en": "Burundi",
        "zh": "布隆迪",
        "Taiwan": "蒲隆地",
        "Hongkong": "布隆迪",
        "Memo": ""
    },
    "BEN": {
        "ISO2": "BJ",
        "ISO3": "BEN",
        "DIGITS": "204",
        "ISO-3166-2": "ISO 3166-2:BJ",
        "en": "Benin",
        "zh": "贝宁",
        "Taiwan": "貝南",
        "Hongkong": "貝寧",
        "Memo": ""
    },
    "BLM": {
        "ISO2": "BL",
        "ISO3": "BLM",
        "DIGITS": "652",
        "ISO-3166-2": "ISO 3166-2:BL",
        "en": "Saint Barthélemy",
        "zh": "圣巴泰勒米",
        "Taiwan": "聖巴瑟米",
        "Hongkong": "聖巴托洛繆島",
        "Memo": ""
    },
    "BMU": {
        "ISO2": "BM",
        "ISO3": "BMU",
        "DIGITS": "060",
        "ISO-3166-2": "ISO 3166-2:BM",
        "en": "Bermuda",
        "zh": "百慕大",
        "Taiwan": "百慕達",
        "Hongkong": "百慕達",
        "Memo": ""
    },
    "BRN": {
        "ISO2": "BN",
        "ISO3": "BRN",
        "DIGITS": "096",
        "ISO-3166-2": "ISO 3166-2:BN",
        "en": "Brunei Darussalam",
        "zh": "文莱",
        "Taiwan": "汶萊",
        "Hongkong": "汶萊",
        "Memo": ""
    },
    "BOL": {
        "ISO2": "BO",
        "ISO3": "BOL",
        "DIGITS": "068",
        "ISO-3166-2": "ISO 3166-2:BO",
        "en": "Bolivia, Plurinational State of",
        "zh": "玻利维亚",
        "Taiwan": "玻利維亞",
        "Hongkong": "玻利維亞",
        "Memo": ""
    },
    "BES": {
        "ISO2": "BQ",
        "ISO3": "BES",
        "DIGITS": "535",
        "ISO-3166-2": "ISO 3166-2:BQ",
        "en": "Bonaire, Sint Eustatius and Saba",
        "zh": "荷兰加勒比区",
        "Taiwan": "荷蘭加勒比區",
        "Hongkong": "荷蘭加勒比區",
        "Memo": ""
    },
    "BRA": {
        "ISO2": "BR",
        "ISO3": "BRA",
        "DIGITS": "076",
        "ISO-3166-2": "ISO 3166-2:BR",
        "en": "Brazil",
        "zh": "巴西",
        "Taiwan": "巴西",
        "Hongkong": "巴西",
        "Memo": ""
    },
    "BHS": {
        "ISO2": "BS",
        "ISO3": "BHS",
        "DIGITS": "044",
        "ISO-3166-2": "ISO 3166-2:BS",
        "en": "Bahamas",
        "zh": "巴哈马",
        "Taiwan": "巴哈馬",
        "Hongkong": "巴哈馬",
        "Memo": ""
    },
    "BTN": {
        "ISO2": "BT",
        "ISO3": "BTN",
        "DIGITS": "064",
        "ISO-3166-2": "ISO 3166-2:BT",
        "en": "Bhutan",
        "zh": "不丹",
        "Taiwan": "不丹",
        "Hongkong": "不丹",
        "Memo": ""
    },
    "BVT": {
        "ISO2": "BV",
        "ISO3": "BVT",
        "DIGITS": "074",
        "ISO-3166-2": "ISO 3166-2:BV",
        "en": "Bouvet Island",
        "zh": "布维特岛",
        "Taiwan": "布威島",
        "Hongkong": "鮑威特島",
        "Memo": ""
    },
    "BWA": {
        "ISO2": "BW",
        "ISO3": "BWA",
        "DIGITS": "072",
        "ISO-3166-2": "ISO 3166-2:BW",
        "en": "Botswana",
        "zh": "博茨瓦纳",
        "Taiwan": "波札那",
        "Hongkong": "博茨瓦納",
        "Memo": ""
    },
    "BLR": {
        "ISO2": "BY",
        "ISO3": "BLR",
        "DIGITS": "112",
        "ISO-3166-2": "ISO 3166-2:BY",
        "en": "Belarus",
        "zh": "白俄罗斯",
        "Taiwan": "白俄羅斯",
        "Hongkong": "白俄羅斯",
        "Memo": ""
    },
    "BLZ": {
        "ISO2": "BZ",
        "ISO3": "BLZ",
        "DIGITS": "084",
        "ISO-3166-2": "ISO 3166-2:BZ",
        "en": "Belize",
        "zh": "伯利兹",
        "Taiwan": "貝里斯",
        "Hongkong": "伯利茲",
        "Memo": ""
    },
    "CAN": {
        "ISO2": "CA",
        "ISO3": "CAN",
        "DIGITS": "124",
        "ISO-3166-2": "ISO 3166-2:CA",
        "en": "Canada",
        "zh": "加拿大",
        "Taiwan": "加拿大",
        "Hongkong": "加拿大",
        "Memo": ""
    },
    "CCK": {
        "ISO2": "CC",
        "ISO3": "CCK",
        "DIGITS": "166",
        "ISO-3166-2": "ISO 3166-2:CC",
        "en": "Cocos (Keeling) Islands",
        "zh": "科科斯（基林）群岛",
        "Taiwan": "可可斯群島",
        "Hongkong": "科科斯群島",
        "Memo": ""
    },
    "COD": {
        "ISO2": "CD",
        "ISO3": "COD",
        "DIGITS": "180",
        "ISO-3166-2": "ISO 3166-2:CD",
        "en": "Congo, the Democratic Republic of the",
        "zh": "刚果（金）",
        "Taiwan": "民主剛果",
        "Hongkong": "民主剛果",
        "Memo": "中國大陸主要使用「剛果（金）」一詞，意指「首都為金沙薩的剛果（共和國）」，而「民主剛果」一詞亦普遍為民間所用。"
    },
    "CAF": {
        "ISO2": "CF",
        "ISO3": "CAF",
        "DIGITS": "140",
        "ISO-3166-2": "ISO 3166-2:CF",
        "en": "Central African Republic",
        "zh": "中非共和国",
        "Taiwan": "中非",
        "Hongkong": "中非",
        "Memo": ""
    },
    "COG": {
        "ISO2": "CG",
        "ISO3": "COG",
        "DIGITS": "178",
        "ISO-3166-2": "ISO 3166-2:CG",
        "en": "Congo",
        "zh": "刚果（布）",
        "Taiwan": "剛果",
        "Hongkong": "剛果",
        "Memo": "中國大陸主要使用「剛果（布）」一詞，意指「首都為布拉柴維爾的剛果（共和國）」，而「剛果」一詞亦普遍為民間所用。"
    },
    "CHE": {
        "ISO2": "CH",
        "ISO3": "CHE",
        "DIGITS": "756",
        "ISO-3166-2": "ISO 3166-2:CH",
        "en": "Switzerland",
        "zh": "瑞士",
        "Taiwan": "瑞士",
        "Hongkong": "瑞士",
        "Memo": ""
    },
    "CIV": {
        "ISO2": "CI",
        "ISO3": "CIV",
        "DIGITS": "384",
        "ISO-3166-2": "ISO 3166-2:CI",
        "en": "Côte d'Ivoire",
        "zh": "科特迪瓦",
        "Taiwan": "象牙海岸",
        "Hongkong": "科特迪瓦",
        "Memo": "香港亦普遍採用「象牙海岸」一詞於其它場合（如香港郵政的郵政指南附錄表）"
    },
    "COK": {
        "ISO2": "CK",
        "ISO3": "COK",
        "DIGITS": "184",
        "ISO-3166-2": "ISO 3166-2:CK",
        "en": "Cook Islands",
        "zh": "库克群岛",
        "Taiwan": "庫克群島",
        "Hongkong": "庫克群島",
        "Memo": "香港亦普遍採用「[[科克群島]]」（CNS 12842譯名）一詞於其它場合"
    },
    "CHL": {
        "ISO2": "CL",
        "ISO3": "CHL",
        "DIGITS": "152",
        "ISO-3166-2": "ISO 3166-2:CL",
        "en": "Chile",
        "zh": "智利",
        "Taiwan": "智利",
        "Hongkong": "智利",
        "Memo": ""
    },
    "CMR": {
        "ISO2": "CM",
        "ISO3": "CMR",
        "DIGITS": "120",
        "ISO-3166-2": "ISO 3166-2:CM",
        "en": "Cameroon",
        "zh": "喀麦隆",
        "Taiwan": "喀麥隆",
        "Hongkong": "喀麥隆",
        "Memo": ""
    },
    "CHN": {
        "ISO2": "CN",
        "ISO3": "CHN",
        "DIGITS": "156",
        "ISO-3166-2": "ISO 3166-2:CN",
        "en": "China",
        "zh": "中国",
        "Taiwan": "中國；\r\n大陸",
        "Hongkong": "大陸；\r\n內地",
        "Memo": "「GB\/T 2659-2000」的「CN」適用於整個中華人民共和國轄區（包括中國大陸、香港、澳門）。而「ISO 3166-1」和「CNS 12842」的「CN」則僅適用於中國大陸，不包括港澳地區。"
    },
    "COL": {
        "ISO2": "CO",
        "ISO3": "COL",
        "DIGITS": "170",
        "ISO-3166-2": "ISO 3166-2:CO",
        "en": "Colombia",
        "zh": "哥伦比亚",
        "Taiwan": "哥倫比亞",
        "Hongkong": "哥倫比亞",
        "Memo": ""
    },
    "CRI": {
        "ISO2": "CR",
        "ISO3": "CRI",
        "DIGITS": "188",
        "ISO-3166-2": "ISO 3166-2:CR",
        "en": "Costa Rica",
        "zh": "哥斯达黎加",
        "Taiwan": "哥斯大黎加",
        "Hongkong": "哥斯達黎加",
        "Memo": ""
    },
    "CUB": {
        "ISO2": "CU",
        "ISO3": "CUB",
        "DIGITS": "192",
        "ISO-3166-2": "ISO 3166-2:CU",
        "en": "Cuba",
        "zh": "古巴",
        "Taiwan": "古巴",
        "Hongkong": "古巴",
        "Memo": ""
    },
    "CPV": {
        "ISO2": "CV",
        "ISO3": "CPV",
        "DIGITS": "132",
        "ISO-3166-2": "ISO 3166-2:CV",
        "en": "Cabo Verde",
        "zh": "佛得角",
        "Taiwan": "維德角",
        "Hongkong": "佛得角",
        "Memo": ""
    },
    "CUW": {
        "ISO2": "CW",
        "ISO3": "CUW",
        "DIGITS": "531",
        "ISO-3166-2": "ISO 3166-2:CW",
        "en": "Curaçao",
        "zh": "库拉索",
        "Taiwan": "庫拉索",
        "Hongkong": "庫拉索",
        "Memo": ""
    },
    "CXR": {
        "ISO2": "CX",
        "ISO3": "CXR",
        "DIGITS": "162",
        "ISO-3166-2": "ISO 3166-2:CX",
        "en": "Christmas Island",
        "zh": "圣诞岛",
        "Taiwan": "聖誕島",
        "Hongkong": "聖誕島",
        "Memo": ""
    },
    "CYP": {
        "ISO2": "CY",
        "ISO3": "CYP",
        "DIGITS": "196",
        "ISO-3166-2": "ISO 3166-2:CY",
        "en": "Cyprus",
        "zh": "塞浦路斯",
        "Taiwan": "塞普勒斯",
        "Hongkong": "塞浦路斯",
        "Memo": ""
    },
    "CZE": {
        "ISO2": "CZ",
        "ISO3": "CZE",
        "DIGITS": "203",
        "ISO-3166-2": "ISO 3166-2:CZ",
        "en": "Czechia",
        "zh": "捷克共和国",
        "Taiwan": "捷克",
        "Hongkong": "捷克",
        "Memo": ""
    },
    "DEU": {
        "ISO2": "DE",
        "ISO3": "DEU",
        "DIGITS": "276",
        "ISO-3166-2": "ISO 3166-2:DE",
        "en": "Germany",
        "zh": "德国",
        "Taiwan": "德國",
        "Hongkong": "德國",
        "Memo": ""
    },
    "DJI": {
        "ISO2": "DJ",
        "ISO3": "DJI",
        "DIGITS": "262",
        "ISO-3166-2": "ISO 3166-2:DJ",
        "en": "Djibouti",
        "zh": "吉布提",
        "Taiwan": "吉布地",
        "Hongkong": "吉布提",
        "Memo": ""
    },
    "DNK": {
        "ISO2": "DK",
        "ISO3": "DNK",
        "DIGITS": "208",
        "ISO-3166-2": "ISO 3166-2:DK",
        "en": "Denmark",
        "zh": "丹麦",
        "Taiwan": "丹麥",
        "Hongkong": "丹麥",
        "Memo": ""
    },
    "DMA": {
        "ISO2": "DM",
        "ISO3": "DMA",
        "DIGITS": "212",
        "ISO-3166-2": "ISO 3166-2:DM",
        "en": "Dominica",
        "zh": "多米尼克",
        "Taiwan": "多米尼克",
        "Hongkong": "多米尼克",
        "Memo": ""
    },
    "DOM": {
        "ISO2": "DO",
        "ISO3": "DOM",
        "DIGITS": "214",
        "ISO-3166-2": "ISO 3166-2:DO",
        "en": "Dominican Republic",
        "zh": "多米尼加共和国",
        "Taiwan": "多明尼加",
        "Hongkong": "多明尼加",
        "Memo": ""
    },
    "DZA": {
        "ISO2": "DZ",
        "ISO3": "DZA",
        "DIGITS": "012",
        "ISO-3166-2": "ISO 3166-2:DZ",
        "en": "Algeria",
        "zh": "阿尔及利亚",
        "Taiwan": "阿爾及利亞",
        "Hongkong": "阿爾及利亞",
        "Memo": ""
    },
    "ECU": {
        "ISO2": "EC",
        "ISO3": "ECU",
        "DIGITS": "218",
        "ISO-3166-2": "ISO 3166-2:EC",
        "en": "Ecuador",
        "zh": "厄瓜多尔",
        "Taiwan": "厄瓜多",
        "Hongkong": "厄瓜多爾",
        "Memo": ""
    },
    "EST": {
        "ISO2": "EE",
        "ISO3": "EST",
        "DIGITS": "233",
        "ISO-3166-2": "ISO 3166-2:EE",
        "en": "Estonia",
        "zh": "爱沙尼亚",
        "Taiwan": "愛沙尼亞",
        "Hongkong": "愛沙尼亞",
        "Memo": ""
    },
    "EGY": {
        "ISO2": "EG",
        "ISO3": "EGY",
        "DIGITS": "818",
        "ISO-3166-2": "ISO 3166-2:EG",
        "en": "Egypt",
        "zh": "埃及",
        "Taiwan": "埃及",
        "Hongkong": "埃及",
        "Memo": ""
    },
    "ESH": {
        "ISO2": "EH",
        "ISO3": "ESH",
        "DIGITS": "732",
        "ISO-3166-2": "ISO 3166-2:EH",
        "en": "Western Sahara",
        "zh": "西撒哈拉",
        "Taiwan": "西撒哈拉",
        "Hongkong": "西撒哈拉",
        "Memo": ""
    },
    "ERI": {
        "ISO2": "ER",
        "ISO3": "ERI",
        "DIGITS": "232",
        "ISO-3166-2": "ISO 3166-2:ER",
        "en": "Eritrea",
        "zh": "厄立特里亚",
        "Taiwan": "厄立垂亞",
        "Hongkong": "厄立特里亞",
        "Memo": ""
    },
    "ESP": {
        "ISO2": "ES",
        "ISO3": "ESP",
        "DIGITS": "724",
        "ISO-3166-2": "ISO 3166-2:ES",
        "en": "Spain",
        "zh": "西班牙",
        "Taiwan": "西班牙",
        "Hongkong": "西班牙",
        "Memo": ""
    },
    "ETH": {
        "ISO2": "ET",
        "ISO3": "ETH",
        "DIGITS": "231",
        "ISO-3166-2": "ISO 3166-2:ET",
        "en": "Ethiopia",
        "zh": "埃塞俄比亚",
        "Taiwan": "衣索比亞",
        "Hongkong": "埃塞俄比亞",
        "Memo": "亦有部份人士使用「衣索匹亞」一詞於台灣"
    },
    "FIN": {
        "ISO2": "FI",
        "ISO3": "FIN",
        "DIGITS": "246",
        "ISO-3166-2": "ISO 3166-2:FI",
        "en": "Finland",
        "zh": "芬兰",
        "Taiwan": "芬蘭",
        "Hongkong": "芬蘭",
        "Memo": ""
    },
    "FJI": {
        "ISO2": "FJ",
        "ISO3": "FJI",
        "DIGITS": "242",
        "ISO-3166-2": "ISO 3166-2:FJ",
        "en": "Fiji",
        "zh": "斐济",
        "Taiwan": "斐濟",
        "Hongkong": "斐濟",
        "Memo": ""
    },
    "FLK": {
        "ISO2": "FK",
        "ISO3": "FLK",
        "DIGITS": "238",
        "ISO-3166-2": "ISO 3166-2:FK",
        "en": "Falkland Islands (Malvinas)",
        "zh": "福克兰群岛",
        "Taiwan": "福克蘭群島",
        "Hongkong": "福克蘭群島（馬爾維納斯）",
        "Memo": ""
    },
    "FSM": {
        "ISO2": "FM",
        "ISO3": "FSM",
        "DIGITS": "583",
        "ISO-3166-2": "ISO 3166-2:FM",
        "en": "Micronesia, Federated States of",
        "zh": "密克罗尼西亚",
        "Taiwan": "密克羅尼西亞聯邦",
        "Hongkong": "密克羅尼西亞",
        "Memo": ""
    },
    "FRO": {
        "ISO2": "FO",
        "ISO3": "FRO",
        "DIGITS": "234",
        "ISO-3166-2": "ISO 3166-2:FO",
        "en": "Faroe Islands",
        "zh": "法罗群岛",
        "Taiwan": "法羅群島",
        "Hongkong": "法羅群島",
        "Memo": ""
    },
    "FRA": {
        "ISO2": "FR",
        "ISO3": "FRA",
        "DIGITS": "250",
        "ISO-3166-2": "ISO 3166-2:FR",
        "en": "France",
        "zh": "法国",
        "Taiwan": "法國",
        "Hongkong": "法國",
        "Memo": ""
    },
    "GAB": {
        "ISO2": "GA",
        "ISO3": "GAB",
        "DIGITS": "266",
        "ISO-3166-2": "ISO 3166-2:GA",
        "en": "Gabon",
        "zh": "加蓬",
        "Taiwan": "加彭",
        "Hongkong": "加蓬",
        "Memo": ""
    },
    "GBR": {
        "ISO2": "GB",
        "ISO3": "GBR",
        "DIGITS": "826",
        "ISO-3166-2": "ISO 3166-2:GB",
        "en": "United Kingdom",
        "zh": "英国",
        "Taiwan": "英國",
        "Hongkong": "英國",
        "Memo": "台灣和香港亦普遍採用「聯合王國」一詞於其它場合"
    },
    "GRD": {
        "ISO2": "GD",
        "ISO3": "GRD",
        "DIGITS": "308",
        "ISO-3166-2": "ISO 3166-2:GD",
        "en": "Grenada",
        "zh": "格林纳达",
        "Taiwan": "格瑞那達",
        "Hongkong": "格林納達",
        "Memo": ""
    },
    "GEO": {
        "ISO2": "GE",
        "ISO3": "GEO",
        "DIGITS": "268",
        "ISO-3166-2": "ISO 3166-2:GE",
        "en": "Georgia",
        "zh": "格鲁吉亚",
        "Taiwan": "喬治亞",
        "Hongkong": "格魯吉亞",
        "Memo": ""
    },
    "GUF": {
        "ISO2": "GF",
        "ISO3": "GUF",
        "DIGITS": "254",
        "ISO-3166-2": "ISO 3166-2:GF",
        "en": "French Guiana",
        "zh": "法属圭亚那",
        "Taiwan": "法屬圭亞那",
        "Hongkong": "法屬圭亞那",
        "Memo": ""
    },
    "GGY": {
        "ISO2": "GG",
        "ISO3": "GGY",
        "DIGITS": "831",
        "ISO-3166-2": "ISO 3166-2:GG",
        "en": "Guernsey",
        "zh": "根西岛",
        "Taiwan": "根息島",
        "Hongkong": "根西島",
        "Memo": "中國大陸曾將之普遍譯作「格恩西岛」"
    },
    "GHA": {
        "ISO2": "GH",
        "ISO3": "GHA",
        "DIGITS": "288",
        "ISO-3166-2": "ISO 3166-2:GH",
        "en": "Ghana",
        "zh": "加纳",
        "Taiwan": "迦納",
        "Hongkong": "加納",
        "Memo": ""
    },
    "GIB": {
        "ISO2": "GI",
        "ISO3": "GIB",
        "DIGITS": "292",
        "ISO-3166-2": "ISO 3166-2:GI",
        "en": "Gibraltar",
        "zh": "直布罗陀",
        "Taiwan": "直布羅陀",
        "Hongkong": "直布羅陀",
        "Memo": ""
    },
    "GRL": {
        "ISO2": "GL",
        "ISO3": "GRL",
        "DIGITS": "304",
        "ISO-3166-2": "ISO 3166-2:GL",
        "en": "Greenland",
        "zh": "格陵兰",
        "Taiwan": "格陵蘭",
        "Hongkong": "格陵蘭",
        "Memo": ""
    },
    "GMB": {
        "ISO2": "GM",
        "ISO3": "GMB",
        "DIGITS": "270",
        "ISO-3166-2": "ISO 3166-2:GM",
        "en": "Gambia",
        "zh": "冈比亚",
        "Taiwan": "甘比亞",
        "Hongkong": "岡比亞",
        "Memo": "亦有部份人士使用「剛比亞」一詞於港澳地區"
    },
    "GIN": {
        "ISO2": "GN",
        "ISO3": "GIN",
        "DIGITS": "324",
        "ISO-3166-2": "ISO 3166-2:GN",
        "en": "Guinea",
        "zh": "几内亚",
        "Taiwan": "幾內亞",
        "Hongkong": "幾內亞",
        "Memo": ""
    },
    "GLP": {
        "ISO2": "GP",
        "ISO3": "GLP",
        "DIGITS": "312",
        "ISO-3166-2": "ISO 3166-2:GP",
        "en": "Guadeloupe",
        "zh": "瓜德罗普",
        "Taiwan": "瓜德魯普島",
        "Hongkong": "瓜德魯普島",
        "Memo": ""
    },
    "GNQ": {
        "ISO2": "GQ",
        "ISO3": "GNQ",
        "DIGITS": "226",
        "ISO-3166-2": "ISO 3166-2:GQ",
        "en": "Equatorial Guinea",
        "zh": "赤道几内亚",
        "Taiwan": "赤道幾內亞",
        "Hongkong": "赤道幾內亞",
        "Memo": ""
    },
    "GRC": {
        "ISO2": "GR",
        "ISO3": "GRC",
        "DIGITS": "300",
        "ISO-3166-2": "ISO 3166-2:GR",
        "en": "Greece",
        "zh": "希腊",
        "Taiwan": "希臘",
        "Hongkong": "希臘",
        "Memo": ""
    },
    "SGS": {
        "ISO2": "GS",
        "ISO3": "SGS",
        "DIGITS": "239",
        "ISO-3166-2": "ISO 3166-2:GS",
        "en": "South Georgia and the South Sandwich Islands",
        "zh": "南乔治亚岛和南桑威齐群岛",
        "Taiwan": "南喬治亞與南三明治群島",
        "Hongkong": "南喬治亞島與南桑威奇群島",
        "Memo": ""
    },
    "GTM": {
        "ISO2": "GT",
        "ISO3": "GTM",
        "DIGITS": "320",
        "ISO-3166-2": "ISO 3166-2:GT",
        "en": "Guatemala",
        "zh": "危地马拉",
        "Taiwan": "瓜地馬拉",
        "Hongkong": "危地馬拉",
        "Memo": ""
    },
    "GUM": {
        "ISO2": "GU",
        "ISO3": "GUM",
        "DIGITS": "316",
        "ISO-3166-2": "ISO 3166-2:GU",
        "en": "Guam",
        "zh": "关岛",
        "Taiwan": "關島",
        "Hongkong": "關島",
        "Memo": ""
    },
    "GNB": {
        "ISO2": "GW",
        "ISO3": "GNB",
        "DIGITS": "624",
        "ISO-3166-2": "ISO 3166-2:GW",
        "en": "Guinea-Bissau",
        "zh": "几内亚比绍",
        "Taiwan": "幾內亞比索",
        "Hongkong": "幾內亞比紹",
        "Memo": ""
    },
    "GUY": {
        "ISO2": "GY",
        "ISO3": "GUY",
        "DIGITS": "328",
        "ISO-3166-2": "ISO 3166-2:GY",
        "en": "Guyana",
        "zh": "圭亚那",
        "Taiwan": "蓋亞那",
        "Hongkong": "圭亞那",
        "Memo": ""
    },
    "HKG": {
        "ISO2": "HK",
        "ISO3": "HKG",
        "DIGITS": "344",
        "ISO-3166-2": "ISO 3166-2:HK",
        "en": "Hong Kong",
        "zh": "中国香港特别行政区",
        "Taiwan": "香港",
        "Hongkong": "香港",
        "Memo": ""
    },
    "HMD": {
        "ISO2": "HM",
        "ISO3": "HMD",
        "DIGITS": "334",
        "ISO-3166-2": "ISO 3166-2:HM",
        "en": "Heard Island and McDonald Islands",
        "zh": "赫德岛和麦克唐纳群岛",
        "Taiwan": "赫德及麥當勞群島",
        "Hongkong": "赫德島和麥克唐納群島",
        "Memo": ""
    },
    "HND": {
        "ISO2": "HN",
        "ISO3": "HND",
        "DIGITS": "340",
        "ISO-3166-2": "ISO 3166-2:HN",
        "en": "Honduras",
        "zh": "洪都拉斯",
        "Taiwan": "洪都拉斯",
        "Hongkong": "宏都拉斯",
        "Memo": ""
    },
    "HRV": {
        "ISO2": "HR",
        "ISO3": "HRV",
        "DIGITS": "191",
        "ISO-3166-2": "ISO 3166-2:HR",
        "en": "Croatia",
        "zh": "克罗地亚",
        "Taiwan": "克羅地亞",
        "Hongkong": "克羅地亞",
        "Memo": ""
    },
    "HTI": {
        "ISO2": "HT",
        "ISO3": "HTI",
        "DIGITS": "332",
        "ISO-3166-2": "ISO 3166-2:HT",
        "en": "Haiti",
        "zh": "海地",
        "Taiwan": "海地",
        "Hongkong": "海地",
        "Memo": ""
    },
    "HUN": {
        "ISO2": "HU",
        "ISO3": "HUN",
        "DIGITS": "348",
        "ISO-3166-2": "ISO 3166-2:HU",
        "en": "Hungary",
        "zh": "匈牙利",
        "Taiwan": "匈牙利",
        "Hongkong": "匈牙利",
        "Memo": ""
    },
    "IDN": {
        "ISO2": "ID",
        "ISO3": "IDN",
        "DIGITS": "360",
        "ISO-3166-2": "ISO 3166-2:ID",
        "en": "Indonesia",
        "zh": "印度尼西亚",
        "Taiwan": "印尼",
        "Hongkong": "印尼",
        "Memo": ""
    },
    "IRL": {
        "ISO2": "IE",
        "ISO3": "IRL",
        "DIGITS": "372",
        "ISO-3166-2": "ISO 3166-2:IE",
        "en": "Ireland",
        "zh": "爱尔兰",
        "Taiwan": "愛爾蘭",
        "Hongkong": "愛爾蘭",
        "Memo": ""
    },
    "ISR": {
        "ISO2": "IL",
        "ISO3": "ISR",
        "DIGITS": "376",
        "ISO-3166-2": "ISO 3166-2:IL",
        "en": "Israel",
        "zh": "以色列",
        "Taiwan": "以色列",
        "Hongkong": "以色列",
        "Memo": ""
    },
    "IMN": {
        "ISO2": "IM",
        "ISO3": "IMN",
        "DIGITS": "833",
        "ISO-3166-2": "ISO 3166-2:IM",
        "en": "Isle of Man",
        "zh": "曼岛",
        "Taiwan": "曼島",
        "Hongkong": "萌島",
        "Memo": ""
    },
    "IND": {
        "ISO2": "IN",
        "ISO3": "IND",
        "DIGITS": "356",
        "ISO-3166-2": "ISO 3166-2:IN",
        "en": "India",
        "zh": "印度",
        "Taiwan": "印度",
        "Hongkong": "印度",
        "Memo": ""
    },
    "IOT": {
        "ISO2": "IO",
        "ISO3": "IOT",
        "DIGITS": "086",
        "ISO-3166-2": "ISO 3166-2:IO",
        "en": "British Indian Ocean Territory",
        "zh": "英属印度洋领地",
        "Taiwan": "英屬印度洋地區",
        "Hongkong": "英屬印度洋地區",
        "Memo": ""
    },
    "IRQ": {
        "ISO2": "IQ",
        "ISO3": "IRQ",
        "DIGITS": "368",
        "ISO-3166-2": "ISO 3166-2:IQ",
        "en": "Iraq",
        "zh": "伊拉克",
        "Taiwan": "伊拉克",
        "Hongkong": "伊拉克",
        "Memo": ""
    },
    "IRN": {
        "ISO2": "IR",
        "ISO3": "IRN",
        "DIGITS": "364",
        "ISO-3166-2": "ISO 3166-2:IR",
        "en": "Iran, Islamic Republic of",
        "zh": "伊朗",
        "Taiwan": "伊朗",
        "Hongkong": "伊朗",
        "Memo": ""
    },
    "ISL": {
        "ISO2": "IS",
        "ISO3": "ISL",
        "DIGITS": "352",
        "ISO-3166-2": "ISO 3166-2:IS",
        "en": "Iceland",
        "zh": "冰岛",
        "Taiwan": "冰島",
        "Hongkong": "冰島",
        "Memo": ""
    },
    "ITA": {
        "ISO2": "IT",
        "ISO3": "ITA",
        "DIGITS": "380",
        "ISO-3166-2": "ISO 3166-2:IT",
        "en": "Italy",
        "zh": "意大利",
        "Taiwan": "義大利",
        "Hongkong": "意大利",
        "Memo": ""
    },
    "JEY": {
        "ISO2": "JE",
        "ISO3": "JEY",
        "DIGITS": "832",
        "ISO-3166-2": "ISO 3166-2:JE",
        "en": "Jersey",
        "zh": "泽西岛",
        "Taiwan": "澤西島",
        "Hongkong": "澤西",
        "Memo": ""
    },
    "JAM": {
        "ISO2": "JM",
        "ISO3": "JAM",
        "DIGITS": "388",
        "ISO-3166-2": "ISO 3166-2:JM",
        "en": "Jamaica",
        "zh": "牙买加",
        "Taiwan": "牙買加",
        "Hongkong": "牙買加",
        "Memo": ""
    },
    "JOR": {
        "ISO2": "JO",
        "ISO3": "JOR",
        "DIGITS": "400",
        "ISO-3166-2": "ISO 3166-2:JO",
        "en": "Jordan",
        "zh": "约旦",
        "Taiwan": "約旦",
        "Hongkong": "約旦",
        "Memo": ""
    },
    "JPN": {
        "ISO2": "JP",
        "ISO3": "JPN",
        "DIGITS": "392",
        "ISO-3166-2": "ISO 3166-2:JP",
        "en": "Japan",
        "zh": "日本",
        "Taiwan": "日本",
        "Hongkong": "日本",
        "Memo": ""
    },
    "KEN": {
        "ISO2": "KE",
        "ISO3": "KEN",
        "DIGITS": "404",
        "ISO-3166-2": "ISO 3166-2:KE",
        "en": "Kenya",
        "zh": "肯尼亚",
        "Taiwan": "肯亞",
        "Hongkong": "肯尼亞",
        "Memo": "香港亦普遍採用「肯雅」一詞於其它場合"
    },
    "KGZ": {
        "ISO2": "KG",
        "ISO3": "KGZ",
        "DIGITS": "417",
        "ISO-3166-2": "ISO 3166-2:KG",
        "en": "Kyrgyzstan",
        "zh": "吉尔吉斯斯坦",
        "Taiwan": "吉爾吉斯",
        "Hongkong": "吉爾吉斯",
        "Memo": "香港習慣略去「斯坦」後綴，有必要會用全稱"
    },
    "KHM": {
        "ISO2": "KH",
        "ISO3": "KHM",
        "DIGITS": "116",
        "ISO-3166-2": "ISO 3166-2:KH",
        "en": "Cambodia",
        "zh": "柬埔寨",
        "Taiwan": "柬埔寨",
        "Hongkong": "柬埔寨",
        "Memo": ""
    },
    "KIR": {
        "ISO2": "KI",
        "ISO3": "KIR",
        "DIGITS": "296",
        "ISO-3166-2": "ISO 3166-2:KI",
        "en": "Kiribati",
        "zh": "基里巴斯",
        "Taiwan": "吉里巴斯",
        "Hongkong": "基里巴斯",
        "Memo": ""
    },
    "COM": {
        "ISO2": "KM",
        "ISO3": "COM",
        "DIGITS": "174",
        "ISO-3166-2": "ISO 3166-2:KM",
        "en": "Comoros",
        "zh": "科摩罗",
        "Taiwan": "葛摩",
        "Hongkong": "科摩羅",
        "Memo": ""
    },
    "KNA": {
        "ISO2": "KN",
        "ISO3": "KNA",
        "DIGITS": "659",
        "ISO-3166-2": "ISO 3166-2:KN",
        "en": "Saint Kitts and Nevis",
        "zh": "圣基茨和尼维斯",
        "Taiwan": "聖克里斯多福及尼維斯",
        "Hongkong": "聖基茨和尼維斯",
        "Memo": "香港亦普遍採用「聖克里斯托佛島及尼維斯島」一詞於其它場合（如香港郵政的郵政指南附錄表）。亦有部份人士使用「聖吉斯納域斯」一詞於港澳地區"
    },
    "PRK": {
        "ISO2": "KP",
        "ISO3": "PRK",
        "DIGITS": "408",
        "ISO-3166-2": "ISO 3166-2:KP",
        "en": "Korea, Democratic People's Republic of",
        "zh": "朝鲜",
        "Taiwan": "北韓",
        "Hongkong": "朝鲜；\r\n北韓",
        "Memo": "澳門習慣稱之為「北韓」"
    },
    "KOR": {
        "ISO2": "KR",
        "ISO3": "KOR",
        "DIGITS": "410",
        "ISO-3166-2": "ISO 3166-2:KR",
        "en": "Korea, Republic of",
        "zh": "韩国",
        "Taiwan": "韓國；\r\n南韓",
        "Hongkong": "韓國；\r\n南韓",
        "Memo": "澳門習慣稱之為「南韓」"
    },
    "KWT": {
        "ISO2": "KW",
        "ISO3": "KWT",
        "DIGITS": "414",
        "ISO-3166-2": "ISO 3166-2:KW",
        "en": "Kuwait",
        "zh": "科威特",
        "Taiwan": "科威特",
        "Hongkong": "科威特",
        "Memo": ""
    },
    "CYM": {
        "ISO2": "KY",
        "ISO3": "CYM",
        "DIGITS": "136",
        "ISO-3166-2": "ISO 3166-2:KY",
        "en": "Cayman Islands",
        "zh": "开曼群岛",
        "Taiwan": "開曼群島",
        "Hongkong": "開曼群島",
        "Memo": ""
    },
    "KAZ": {
        "ISO2": "KZ",
        "ISO3": "KAZ",
        "DIGITS": "398",
        "ISO-3166-2": "ISO 3166-2:KZ",
        "en": "Kazakhstan",
        "zh": "哈萨克斯坦",
        "Taiwan": "哈薩克",
        "Hongkong": "哈薩克",
        "Memo": "香港習慣略去「斯坦」後綴，有必要會用全稱"
    },
    "LAO": {
        "ISO2": "LA",
        "ISO3": "LAO",
        "DIGITS": "418",
        "ISO-3166-2": "ISO 3166-2:LA",
        "en": "Lao People's Democratic Republic",
        "zh": "老挝",
        "Taiwan": "寮國",
        "Hongkong": "老挝",
        "Memo": "新加坡與馬來西亞均將之譯作「寮国」"
    },
    "LBN": {
        "ISO2": "LB",
        "ISO3": "LBN",
        "DIGITS": "422",
        "ISO-3166-2": "ISO 3166-2:LB",
        "en": "Lebanon",
        "zh": "黎巴嫩",
        "Taiwan": "黎巴嫩",
        "Hongkong": "黎巴嫩",
        "Memo": ""
    },
    "LCA": {
        "ISO2": "LC",
        "ISO3": "LCA",
        "DIGITS": "662",
        "ISO-3166-2": "ISO 3166-2:LC",
        "en": "Saint Lucia",
        "zh": "圣卢西亚",
        "Taiwan": "聖露西亞",
        "Hongkong": "聖盧西亞",
        "Memo": "香港亦普遍採用「聖路西亞」一詞於其它場合"
    },
    "LIE": {
        "ISO2": "LI",
        "ISO3": "LIE",
        "DIGITS": "438",
        "ISO-3166-2": "ISO 3166-2:LI",
        "en": "Liechtenstein",
        "zh": "列支敦士登",
        "Taiwan": "列支敦斯登",
        "Hongkong": "列支敦士登",
        "Memo": ""
    },
    "LKA": {
        "ISO2": "LK",
        "ISO3": "LKA",
        "DIGITS": "144",
        "ISO-3166-2": "ISO 3166-2:LK",
        "en": "Sri Lanka",
        "zh": "斯里兰卡",
        "Taiwan": "斯里蘭卡",
        "Hongkong": "斯里蘭卡",
        "Memo": ""
    },
    "LBR": {
        "ISO2": "LR",
        "ISO3": "LBR",
        "DIGITS": "430",
        "ISO-3166-2": "ISO 3166-2:LR",
        "en": "Liberia",
        "zh": "利比里亚",
        "Taiwan": "賴比瑞亞",
        "Hongkong": "利比里亞",
        "Memo": ""
    },
    "LSO": {
        "ISO2": "LS",
        "ISO3": "LSO",
        "DIGITS": "426",
        "ISO-3166-2": "ISO 3166-2:LS",
        "en": "Lesotho",
        "zh": "莱索托",
        "Taiwan": "賴索托",
        "Hongkong": "萊索托",
        "Memo": ""
    },
    "LTU": {
        "ISO2": "LT",
        "ISO3": "LTU",
        "DIGITS": "440",
        "ISO-3166-2": "ISO 3166-2:LT",
        "en": "Lithuania",
        "zh": "立陶宛",
        "Taiwan": "立陶宛",
        "Hongkong": "立陶宛",
        "Memo": ""
    },
    "LUX": {
        "ISO2": "LU",
        "ISO3": "LUX",
        "DIGITS": "442",
        "ISO-3166-2": "ISO 3166-2:LU",
        "en": "Luxembourg",
        "zh": "卢森堡",
        "Taiwan": "盧森堡",
        "Hongkong": "盧森堡",
        "Memo": ""
    },
    "LVA": {
        "ISO2": "LV",
        "ISO3": "LVA",
        "DIGITS": "428",
        "ISO-3166-2": "ISO 3166-2:LV",
        "en": "Latvia",
        "zh": "拉脱维亚",
        "Taiwan": "拉脫維亞",
        "Hongkong": "拉脫維亞",
        "Memo": ""
    },
    "LBY": {
        "ISO2": "LY",
        "ISO3": "LBY",
        "DIGITS": "434",
        "ISO-3166-2": "ISO 3166-2:LY",
        "en": "Libya",
        "zh": "利比亚",
        "Taiwan": "利比亞",
        "Hongkong": "利比亞",
        "Memo": ""
    },
    "MAR": {
        "ISO2": "MA",
        "ISO3": "MAR",
        "DIGITS": "504",
        "ISO-3166-2": "ISO 3166-2:MA",
        "en": "Morocco",
        "zh": "摩洛哥",
        "Taiwan": "摩洛哥",
        "Hongkong": "摩洛哥",
        "Memo": ""
    },
    "MCO": {
        "ISO2": "MC",
        "ISO3": "MCO",
        "DIGITS": "492",
        "ISO-3166-2": "ISO 3166-2:MC",
        "en": "Monaco",
        "zh": "摩纳哥",
        "Taiwan": "摩納哥",
        "Hongkong": "摩納哥",
        "Memo": ""
    },
    "MDA": {
        "ISO2": "MD",
        "ISO3": "MDA",
        "DIGITS": "498",
        "ISO-3166-2": "ISO 3166-2:MD",
        "en": "Moldova, Republic of",
        "zh": "摩尔多瓦",
        "Taiwan": "摩爾多瓦",
        "Hongkong": "摩爾多瓦",
        "Memo": ""
    },
    "MNE": {
        "ISO2": "ME",
        "ISO3": "MNE",
        "DIGITS": "499",
        "ISO-3166-2": "ISO 3166-2:ME",
        "en": "Montenegro",
        "zh": "黑山共和国",
        "Taiwan": "蒙特內哥羅",
        "Hongkong": "黑山",
        "Memo": ""
    },
    "MAF": {
        "ISO2": "MF",
        "ISO3": "MAF",
        "DIGITS": "663",
        "ISO-3166-2": "ISO 3166-2:MF",
        "en": "Saint Martin (French part)",
        "zh": "法属圣马丁",
        "Taiwan": "法屬聖馬丁　",
        "Hongkong": "法屬聖馬丁",
        "Memo": ""
    },
    "MDG": {
        "ISO2": "MG",
        "ISO3": "MDG",
        "DIGITS": "450",
        "ISO-3166-2": "ISO 3166-2:MG",
        "en": "Madagascar",
        "zh": "马达加斯加",
        "Taiwan": "馬達加斯加",
        "Hongkong": "馬達加斯加",
        "Memo": ""
    },
    "MHL": {
        "ISO2": "MH",
        "ISO3": "MHL",
        "DIGITS": "584",
        "ISO-3166-2": "ISO 3166-2:MH",
        "en": "Marshall Islands",
        "zh": "马绍尔群岛",
        "Taiwan": "馬紹爾群島",
        "Hongkong": "馬紹爾群島",
        "Memo": ""
    },
    "MKD": {
        "ISO2": "MK",
        "ISO3": "MKD",
        "DIGITS": "807",
        "ISO-3166-2": "ISO 3166-2:MK",
        "en": "Macedonia, the former Yugoslav Republic of",
        "zh": "马其顿",
        "Taiwan": "馬其頓",
        "Hongkong": "馬其頓",
        "Memo": "因历史、政治原因，ISO官方称之为“Macedonia (the former Yugoslav Republic of)”，即“前南斯拉夫马其顿共和国”"
    },
    "MLI": {
        "ISO2": "ML",
        "ISO3": "MLI",
        "DIGITS": "466",
        "ISO-3166-2": "ISO 3166-2:ML",
        "en": "Mali",
        "zh": "马里",
        "Taiwan": "馬利",
        "Hongkong": "馬里",
        "Memo": ""
    },
    "MMR": {
        "ISO2": "MM",
        "ISO3": "MMR",
        "DIGITS": "104",
        "ISO-3166-2": "ISO 3166-2:MM",
        "en": "Myanmar",
        "zh": "缅甸",
        "Taiwan": "緬甸",
        "Hongkong": "緬甸",
        "Memo": ""
    },
    "MNG": {
        "ISO2": "MN",
        "ISO3": "MNG",
        "DIGITS": "496",
        "ISO-3166-2": "ISO 3166-2:MN",
        "en": "Mongolia",
        "zh": "蒙古",
        "Taiwan": "蒙古",
        "Hongkong": "蒙古國",
        "Memo": "香港亦普遍採用「蒙古」一詞於其它場合"
    },
    "MAC": {
        "ISO2": "MO",
        "ISO3": "MAC",
        "DIGITS": "446",
        "ISO-3166-2": "ISO 3166-2:MO",
        "en": "Macao",
        "zh": "中国澳门特别行政区",
        "Taiwan": "澳門",
        "Hongkong": "澳門",
        "Memo": ""
    },
    "MNP": {
        "ISO2": "MP",
        "ISO3": "MNP",
        "DIGITS": "580",
        "ISO-3166-2": "ISO 3166-2:MP",
        "en": "Northern Mariana Islands",
        "zh": "北马里亚纳群岛",
        "Taiwan": "北馬里亞納群島",
        "Hongkong": "北馬里亞納群島",
        "Memo": "亦有部份人士使用「北瑪利安娜群島」一詞於港澳地區"
    },
    "MTQ": {
        "ISO2": "MQ",
        "ISO3": "MTQ",
        "DIGITS": "474",
        "ISO-3166-2": "ISO 3166-2:MQ",
        "en": "Martinique",
        "zh": "马提尼克",
        "Taiwan": "法屬馬丁尼克",
        "Hongkong": "馬提尼克",
        "Memo": ""
    },
    "MRT": {
        "ISO2": "MR",
        "ISO3": "MRT",
        "DIGITS": "478",
        "ISO-3166-2": "ISO 3166-2:MR",
        "en": "Mauritania",
        "zh": "毛里塔尼亚",
        "Taiwan": "茅利塔尼亞",
        "Hongkong": "毛里塔尼亞",
        "Memo": ""
    },
    "MSR": {
        "ISO2": "MS",
        "ISO3": "MSR",
        "DIGITS": "500",
        "ISO-3166-2": "ISO 3166-2:MS",
        "en": "Montserrat",
        "zh": "蒙特塞拉特",
        "Taiwan": "蒙塞拉特島",
        "Hongkong": "蒙塞拉特島",
        "Memo": ""
    },
    "MLT": {
        "ISO2": "MT",
        "ISO3": "MLT",
        "DIGITS": "470",
        "ISO-3166-2": "ISO 3166-2:MT",
        "en": "Malta",
        "zh": "马耳他",
        "Taiwan": "馬耳他",
        "Hongkong": "馬爾他",
        "Memo": ""
    },
    "MUS": {
        "ISO2": "MU",
        "ISO3": "MUS",
        "DIGITS": "480",
        "ISO-3166-2": "ISO 3166-2:MU",
        "en": "Mauritius",
        "zh": "毛里求斯",
        "Taiwan": "模里西斯",
        "Hongkong": "毛里求斯",
        "Memo": "香港亦普遍採用「毛里裘斯」一詞於其它場合"
    },
    "MDV": {
        "ISO2": "MV",
        "ISO3": "MDV",
        "DIGITS": "462",
        "ISO-3166-2": "ISO 3166-2:MV",
        "en": "Maldives",
        "zh": "马尔代夫",
        "Taiwan": "馬爾地夫",
        "Hongkong": "馬爾代夫",
        "Memo": ""
    },
    "MWI": {
        "ISO2": "MW",
        "ISO3": "MWI",
        "DIGITS": "454",
        "ISO-3166-2": "ISO 3166-2:MW",
        "en": "Malawi",
        "zh": "马拉维",
        "Taiwan": "馬拉威",
        "Hongkong": "馬拉維",
        "Memo": ""
    },
    "MEX": {
        "ISO2": "MX",
        "ISO3": "MEX",
        "DIGITS": "484",
        "ISO-3166-2": "ISO 3166-2:MX",
        "en": "Mexico",
        "zh": "墨西哥",
        "Taiwan": "墨西哥",
        "Hongkong": "墨西哥",
        "Memo": ""
    },
    "MYS": {
        "ISO2": "MY",
        "ISO3": "MYS",
        "DIGITS": "458",
        "ISO-3166-2": "ISO 3166-2:MY",
        "en": "Malaysia",
        "zh": "马来西亚",
        "Taiwan": "馬來西亞",
        "Hongkong": "馬來西亞",
        "Memo": ""
    },
    "MOZ": {
        "ISO2": "MZ",
        "ISO3": "MOZ",
        "DIGITS": "508",
        "ISO-3166-2": "ISO 3166-2:MZ",
        "en": "Mozambique",
        "zh": "莫桑比克",
        "Taiwan": "莫三比克",
        "Hongkong": "莫桑比克",
        "Memo": "亦有譯作「莫三鼻給」"
    },
    "NAM": {
        "ISO2": "NA",
        "ISO3": "NAM",
        "DIGITS": "516",
        "ISO-3166-2": "ISO 3166-2:NA",
        "en": "Namibia",
        "zh": "纳米比亚",
        "Taiwan": "奈米比亞",
        "Hongkong": "納米比亞",
        "Memo": ""
    },
    "NCL": {
        "ISO2": "NC",
        "ISO3": "NCL",
        "DIGITS": "540",
        "ISO-3166-2": "ISO 3166-2:NC",
        "en": "New Caledonia",
        "zh": "新喀里多尼亚",
        "Taiwan": "新喀里多尼亞島",
        "Hongkong": "新喀里多尼亞",
        "Memo": "亦有部份人士使用「新喀爾多尼亞」一詞於港澳地區"
    },
    "NER": {
        "ISO2": "NE",
        "ISO3": "NER",
        "DIGITS": "562",
        "ISO-3166-2": "ISO 3166-2:NE",
        "en": "Niger",
        "zh": "尼日尔",
        "Taiwan": "尼日",
        "Hongkong": "尼日爾",
        "Memo": ""
    },
    "NFK": {
        "ISO2": "NF",
        "ISO3": "NFK",
        "DIGITS": "574",
        "ISO-3166-2": "ISO 3166-2:NF",
        "en": "Norfolk Island",
        "zh": "诺福克岛",
        "Taiwan": "諾福克島",
        "Hongkong": "諾福克島",
        "Memo": ""
    },
    "NGA": {
        "ISO2": "NG",
        "ISO3": "NGA",
        "DIGITS": "566",
        "ISO-3166-2": "ISO 3166-2:NG",
        "en": "Nigeria",
        "zh": "尼日利亚",
        "Taiwan": "奈及利亞",
        "Hongkong": "尼日利亞",
        "Memo": ""
    },
    "NIC": {
        "ISO2": "NI",
        "ISO3": "NIC",
        "DIGITS": "558",
        "ISO-3166-2": "ISO 3166-2:NI",
        "en": "Nicaragua",
        "zh": "尼加拉瓜",
        "Taiwan": "尼加拉瓜",
        "Hongkong": "尼加拉瓜",
        "Memo": ""
    },
    "NLD": {
        "ISO2": "NL",
        "ISO3": "NLD",
        "DIGITS": "528",
        "ISO-3166-2": "ISO 3166-2:NL",
        "en": "Netherlands",
        "zh": "荷兰",
        "Taiwan": "荷蘭",
        "Hongkong": "荷蘭",
        "Memo": ""
    },
    "NOR": {
        "ISO2": "NO",
        "ISO3": "NOR",
        "DIGITS": "578",
        "ISO-3166-2": "ISO 3166-2:NO",
        "en": "Norway",
        "zh": "挪威",
        "Taiwan": "挪威",
        "Hongkong": "挪威",
        "Memo": ""
    },
    "NPL": {
        "ISO2": "NP",
        "ISO3": "NPL",
        "DIGITS": "524",
        "ISO-3166-2": "ISO 3166-2:NP",
        "en": "Nepal",
        "zh": "尼泊尔",
        "Taiwan": "尼泊爾",
        "Hongkong": "尼泊爾",
        "Memo": ""
    },
    "NRU": {
        "ISO2": "NR",
        "ISO3": "NRU",
        "DIGITS": "520",
        "ISO-3166-2": "ISO 3166-2:NR",
        "en": "Nauru",
        "zh": "瑙鲁",
        "Taiwan": "諾魯",
        "Hongkong": "瑙魯",
        "Memo": ""
    },
    "NIU": {
        "ISO2": "NU",
        "ISO3": "NIU",
        "DIGITS": "570",
        "ISO-3166-2": "ISO 3166-2:NU",
        "en": "Niue",
        "zh": "纽埃",
        "Taiwan": "紐埃",
        "Hongkong": "紐埃",
        "Memo": "台灣亦普遍採用「紐威島」（CNS 12842譯名）一詞於其它場合（如MSN台灣）"
    },
    "NZL": {
        "ISO2": "NZ",
        "ISO3": "NZL",
        "DIGITS": "554",
        "ISO-3166-2": "ISO 3166-2:NZ",
        "en": "New Zealand",
        "zh": "新西兰",
        "Taiwan": "紐西蘭",
        "Hongkong": "新西蘭",
        "Memo": "新加坡與馬來西亞均將之譯作「纽西兰」。香港亦普遍採用「紐西蘭」一詞於其它場合"
    },
    "OMN": {
        "ISO2": "OM",
        "ISO3": "OMN",
        "DIGITS": "512",
        "ISO-3166-2": "ISO 3166-2:OM",
        "en": "Oman",
        "zh": "阿曼",
        "Taiwan": "阿曼",
        "Hongkong": "阿曼",
        "Memo": ""
    },
    "PAN": {
        "ISO2": "PA",
        "ISO3": "PAN",
        "DIGITS": "591",
        "ISO-3166-2": "ISO 3166-2:PA",
        "en": "Panama",
        "zh": "巴拿马",
        "Taiwan": "巴拿馬",
        "Hongkong": "巴拿馬",
        "Memo": ""
    },
    "PER": {
        "ISO2": "PE",
        "ISO3": "PER",
        "DIGITS": "604",
        "ISO-3166-2": "ISO 3166-2:PE",
        "en": "Peru",
        "zh": "秘鲁",
        "Taiwan": "秘魯",
        "Hongkong": "秘魯",
        "Memo": ""
    },
    "PYF": {
        "ISO2": "PF",
        "ISO3": "PYF",
        "DIGITS": "258",
        "ISO-3166-2": "ISO 3166-2:PF",
        "en": "French Polynesia",
        "zh": "法属波利尼西亚",
        "Taiwan": "法屬玻里尼西亞",
        "Hongkong": "法屬波利尼西亞",
        "Memo": ""
    },
    "PNG": {
        "ISO2": "PG",
        "ISO3": "PNG",
        "DIGITS": "598",
        "ISO-3166-2": "ISO 3166-2:PG",
        "en": "Papua New Guinea",
        "zh": "巴布亚新几内亚",
        "Taiwan": "巴布亞新幾內亞",
        "Hongkong": "巴布亞新幾內亞",
        "Memo": ""
    },
    "PHL": {
        "ISO2": "PH",
        "ISO3": "PHL",
        "DIGITS": "608",
        "ISO-3166-2": "ISO 3166-2:PH",
        "en": "Philippines",
        "zh": "菲律宾",
        "Taiwan": "菲律賓",
        "Hongkong": "菲律賓",
        "Memo": ""
    },
    "PAK": {
        "ISO2": "PK",
        "ISO3": "PAK",
        "DIGITS": "586",
        "ISO-3166-2": "ISO 3166-2:PK",
        "en": "Pakistan",
        "zh": "巴基斯坦",
        "Taiwan": "巴基斯坦",
        "Hongkong": "巴基斯坦",
        "Memo": ""
    },
    "POL": {
        "ISO2": "PL",
        "ISO3": "POL",
        "DIGITS": "616",
        "ISO-3166-2": "ISO 3166-2:PL",
        "en": "Poland",
        "zh": "波兰",
        "Taiwan": "波蘭",
        "Hongkong": "波蘭",
        "Memo": ""
    },
    "SPM": {
        "ISO2": "PM",
        "ISO3": "SPM",
        "DIGITS": "666",
        "ISO-3166-2": "ISO 3166-2:PM",
        "en": "Saint Pierre and Miquelon",
        "zh": "圣皮埃尔和密克隆群岛",
        "Taiwan": "聖皮耶與密克隆群島",
        "Hongkong": "聖皮埃爾島和密克隆島",
        "Memo": "香港亦普遍採用「聖皮埃蘭和密克隆群島」一詞於其它場合（如香港郵政的郵政指南附錄表）"
    },
    "PCN": {
        "ISO2": "PN",
        "ISO3": "PCN",
        "DIGITS": "612",
        "ISO-3166-2": "ISO 3166-2:PN",
        "en": "Pitcairn",
        "zh": "皮特凯恩群岛",
        "Taiwan": "皮特康島",
        "Hongkong": "皮特凱恩群島",
        "Memo": ""
    },
    "PRI": {
        "ISO2": "PR",
        "ISO3": "PRI",
        "DIGITS": "630",
        "ISO-3166-2": "ISO 3166-2:PR",
        "en": "Puerto Rico",
        "zh": "波多黎各",
        "Taiwan": "波多黎各",
        "Hongkong": "波多黎各",
        "Memo": ""
    },
    "PSE": {
        "ISO2": "PS",
        "ISO3": "PSE",
        "DIGITS": "275",
        "ISO-3166-2": "ISO 3166-2:PS",
        "en": "Palestine, State of",
        "zh": "巴勒斯坦领土",
        "Taiwan": "巴勒斯坦",
        "Hongkong": "巴勒斯坦",
        "Memo": ""
    },
    "PRT": {
        "ISO2": "PT",
        "ISO3": "PRT",
        "DIGITS": "620",
        "ISO-3166-2": "ISO 3166-2:PT",
        "en": "Portugal",
        "zh": "葡萄牙",
        "Taiwan": "葡萄牙",
        "Hongkong": "葡萄牙",
        "Memo": "澳門民間亦普遍稱之為葡國"
    },
    "PLW": {
        "ISO2": "PW",
        "ISO3": "PLW",
        "DIGITS": "585",
        "ISO-3166-2": "ISO 3166-2:PW",
        "en": "Palau",
        "zh": "帕劳",
        "Taiwan": "帛琉",
        "Hongkong": "帕勞；帛琉",
        "Memo": ""
    },
    "PRY": {
        "ISO2": "PY",
        "ISO3": "PRY",
        "DIGITS": "600",
        "ISO-3166-2": "ISO 3166-2:PY",
        "en": "Paraguay",
        "zh": "巴拉圭",
        "Taiwan": "巴拉圭",
        "Hongkong": "巴拉圭",
        "Memo": ""
    },
    "QAT": {
        "ISO2": "QA",
        "ISO3": "QAT",
        "DIGITS": "634",
        "ISO-3166-2": "ISO 3166-2:QA",
        "en": "Qatar",
        "zh": "卡塔尔",
        "Taiwan": "卡達",
        "Hongkong": "卡塔爾",
        "Memo": ""
    },
    "REU": {
        "ISO2": "RE",
        "ISO3": "REU",
        "DIGITS": "638",
        "ISO-3166-2": "ISO 3166-2:RE",
        "en": "Réunion",
        "zh": "留尼汪",
        "Taiwan": "留尼旺",
        "Hongkong": "留尼汪",
        "Memo": ""
    },
    "ROU": {
        "ISO2": "RO",
        "ISO3": "ROU",
        "DIGITS": "642",
        "ISO-3166-2": "ISO 3166-2:RO",
        "en": "Romania",
        "zh": "罗马尼亚",
        "Taiwan": "羅馬尼亞",
        "Hongkong": "羅馬尼亞",
        "Memo": ""
    },
    "SRB": {
        "ISO2": "RS",
        "ISO3": "SRB",
        "DIGITS": "688",
        "ISO-3166-2": "ISO 3166-2:RS",
        "en": "Serbia",
        "zh": "塞尔维亚",
        "Taiwan": "塞爾維亞",
        "Hongkong": "塞爾維亞",
        "Memo": ""
    },
    "RUS": {
        "ISO2": "RU",
        "ISO3": "RUS",
        "DIGITS": "643",
        "ISO-3166-2": "ISO 3166-2:RU",
        "en": "Russian Federation",
        "zh": "俄罗斯",
        "Taiwan": "俄羅斯",
        "Hongkong": "俄羅斯",
        "Memo": ""
    },
    "RWA": {
        "ISO2": "RW",
        "ISO3": "RWA",
        "DIGITS": "646",
        "ISO-3166-2": "ISO 3166-2:RW",
        "en": "Rwanda",
        "zh": "卢旺达",
        "Taiwan": "盧安達",
        "Hongkong": "盧旺達",
        "Memo": ""
    },
    "SAU": {
        "ISO2": "SA",
        "ISO3": "SAU",
        "DIGITS": "682",
        "ISO-3166-2": "ISO 3166-2:SA",
        "en": "Saudi Arabia",
        "zh": "沙特阿拉伯",
        "Taiwan": "沙烏地阿拉伯",
        "Hongkong": "沙特阿拉伯",
        "Memo": "新加坡與馬來西亞均將之譯作「沙地阿拉伯」。香港亦普遍採用「沙地阿拉伯」一詞於其它場合"
    },
    "SLB": {
        "ISO2": "SB",
        "ISO3": "SLB",
        "DIGITS": "090",
        "ISO-3166-2": "ISO 3166-2:SB",
        "en": "Solomon Islands",
        "zh": "所罗门群岛",
        "Taiwan": "所羅門群島",
        "Hongkong": "所羅門群島",
        "Memo": ""
    },
    "SYC": {
        "ISO2": "SC",
        "ISO3": "SYC",
        "DIGITS": "690",
        "ISO-3166-2": "ISO 3166-2:SC",
        "en": "Seychelles",
        "zh": "塞舌尔",
        "Taiwan": "塞席爾",
        "Hongkong": "塞舌爾",
        "Memo": ""
    },
    "SDN": {
        "ISO2": "SD",
        "ISO3": "SDN",
        "DIGITS": "729",
        "ISO-3166-2": "ISO 3166-2:SD",
        "en": "Sudan",
        "zh": "苏丹",
        "Taiwan": "蘇丹",
        "Hongkong": "蘇丹",
        "Memo": ""
    },
    "SWE": {
        "ISO2": "SE",
        "ISO3": "SWE",
        "DIGITS": "752",
        "ISO-3166-2": "ISO 3166-2:SE",
        "en": "Sweden",
        "zh": "瑞典",
        "Taiwan": "瑞典",
        "Hongkong": "瑞典",
        "Memo": ""
    },
    "SGP": {
        "ISO2": "SG",
        "ISO3": "SGP",
        "DIGITS": "702",
        "ISO-3166-2": "ISO 3166-2:SG",
        "en": "Singapore",
        "zh": "新加坡",
        "Taiwan": "新加坡；\r\n星加坡",
        "Hongkong": "新加坡；\r\n星加坡",
        "Memo": ""
    },
    "SHN": {
        "ISO2": "SH",
        "ISO3": "SHN",
        "DIGITS": "654",
        "ISO-3166-2": "ISO 3166-2:SH",
        "en": "Saint Helena, Ascension and Tristan da Cunha",
        "zh": "圣赫勒拿",
        "Taiwan": "聖赫勒拿島",
        "Hongkong": "聖赫勒拿",
        "Memo": "香港亦普遍採用「聖赫勒拿島」一詞於其它場合（如香港郵政的郵政指南附錄表）。亦有部份人士使用「聖海倫娜島」一詞於港澳地區"
    },
    "SVN": {
        "ISO2": "SI",
        "ISO3": "SVN",
        "DIGITS": "705",
        "ISO-3166-2": "ISO 3166-2:SI",
        "en": "Slovenia",
        "zh": "斯洛文尼亚",
        "Taiwan": "斯洛維尼亞",
        "Hongkong": "斯洛文尼亞",
        "Memo": ""
    },
    "SJM": {
        "ISO2": "SJ",
        "ISO3": "SJM",
        "DIGITS": "744",
        "ISO-3166-2": "ISO 3166-2:SJ",
        "en": "Svalbard and Jan Mayen",
        "zh": "斯瓦尔巴特和扬马延",
        "Taiwan": "斯瓦巴及尖棉島",
        "Hongkong": "斯瓦爾巴特群島",
        "Memo": ""
    },
    "SVK": {
        "ISO2": "SK",
        "ISO3": "SVK",
        "DIGITS": "703",
        "ISO-3166-2": "ISO 3166-2:SK",
        "en": "Slovakia",
        "zh": "斯洛伐克",
        "Taiwan": "斯洛伐克",
        "Hongkong": "斯洛伐克",
        "Memo": ""
    },
    "SLE": {
        "ISO2": "SL",
        "ISO3": "SLE",
        "DIGITS": "694",
        "ISO-3166-2": "ISO 3166-2:SL",
        "en": "Sierra Leone",
        "zh": "塞拉利昂",
        "Taiwan": "獅子山",
        "Hongkong": "塞拉利昂",
        "Memo": ""
    },
    "SMR": {
        "ISO2": "SM",
        "ISO3": "SMR",
        "DIGITS": "674",
        "ISO-3166-2": "ISO 3166-2:SM",
        "en": "San Marino",
        "zh": "圣马力诺",
        "Taiwan": "聖馬利諾",
        "Hongkong": "聖馬力諾",
        "Memo": ""
    },
    "SEN": {
        "ISO2": "SN",
        "ISO3": "SEN",
        "DIGITS": "686",
        "ISO-3166-2": "ISO 3166-2:SN",
        "en": "Senegal",
        "zh": "塞内加尔",
        "Taiwan": "塞內加爾",
        "Hongkong": "塞內加爾",
        "Memo": ""
    },
    "SOM": {
        "ISO2": "SO",
        "ISO3": "SOM",
        "DIGITS": "706",
        "ISO-3166-2": "ISO 3166-2:SO",
        "en": "Somalia",
        "zh": "索马里",
        "Taiwan": "索馬利亞",
        "Hongkong": "索馬里",
        "Memo": ""
    },
    "SUR": {
        "ISO2": "SR",
        "ISO3": "SUR",
        "DIGITS": "740",
        "ISO-3166-2": "ISO 3166-2:SR",
        "en": "Suriname",
        "zh": "苏里南",
        "Taiwan": "蘇利南",
        "Hongkong": "蘇里南",
        "Memo": ""
    },
    "SSD": {
        "ISO2": "SS",
        "ISO3": "SSD",
        "DIGITS": "728",
        "ISO-3166-2": "ISO 3166-2:SS",
        "en": "South Sudan",
        "zh": "南苏丹",
        "Taiwan": "南蘇丹",
        "Hongkong": "南蘇丹",
        "Memo": ""
    },
    "STP": {
        "ISO2": "ST",
        "ISO3": "STP",
        "DIGITS": "678",
        "ISO-3166-2": "ISO 3166-2:ST",
        "en": "Sao Tome and Principe",
        "zh": "圣多美和普林西比",
        "Taiwan": "聖多美普林西比",
        "Hongkong": "聖多美及普林西比",
        "Memo": ""
    },
    "SLV": {
        "ISO2": "SV",
        "ISO3": "SLV",
        "DIGITS": "222",
        "ISO-3166-2": "ISO 3166-2:SV",
        "en": "El Salvador",
        "zh": "萨尔瓦多",
        "Taiwan": "薩爾瓦多",
        "Hongkong": "薩爾瓦多",
        "Memo": ""
    },
    "SXM": {
        "ISO2": "SX",
        "ISO3": "SXM",
        "DIGITS": "534",
        "ISO-3166-2": "ISO 3166-2:SX",
        "en": "Sint Maarten (Dutch part)",
        "zh": "荷属圣马丁",
        "Taiwan": "荷屬聖馬丁",
        "Hongkong": "荷屬聖馬丁",
        "Memo": ""
    },
    "SYR": {
        "ISO2": "SY",
        "ISO3": "SYR",
        "DIGITS": "760",
        "ISO-3166-2": "ISO 3166-2:SY",
        "en": "Syrian Arab Republic",
        "zh": "叙利亚",
        "Taiwan": "敘利亞",
        "Hongkong": "敘利亞",
        "Memo": ""
    },
    "SWZ": {
        "ISO2": "SZ",
        "ISO3": "SWZ",
        "DIGITS": "748",
        "ISO-3166-2": "ISO 3166-2:SZ",
        "en": "Swaziland",
        "zh": "斯威士兰",
        "Taiwan": "史瓦濟蘭",
        "Hongkong": "斯威士蘭",
        "Memo": ""
    },
    "TCA": {
        "ISO2": "TC",
        "ISO3": "TCA",
        "DIGITS": "796",
        "ISO-3166-2": "ISO 3166-2:TC",
        "en": "Turks and Caicos Islands",
        "zh": "特克斯和凯科斯群岛",
        "Taiwan": "土克斯及開科斯群島",
        "Hongkong": "特克斯和凱科斯群島",
        "Memo": ""
    },
    "TCD": {
        "ISO2": "TD",
        "ISO3": "TCD",
        "DIGITS": "148",
        "ISO-3166-2": "ISO 3166-2:TD",
        "en": "Chad",
        "zh": "乍得",
        "Taiwan": "查德",
        "Hongkong": "乍得",
        "Memo": ""
    },
    "ATF": {
        "ISO2": "TF",
        "ISO3": "ATF",
        "DIGITS": "260",
        "ISO-3166-2": "ISO 3166-2:TF",
        "en": "French Southern Territories",
        "zh": "法属南部领地",
        "Taiwan": "法屬南部屬地",
        "Hongkong": "法屬南部地區",
        "Memo": "台灣亦普遍採用「法屬南方及南極陸地」一詞於其它場合（如MSN台灣）"
    },
    "TGO": {
        "ISO2": "TG",
        "ISO3": "TGO",
        "DIGITS": "768",
        "ISO-3166-2": "ISO 3166-2:TG",
        "en": "Togo",
        "zh": "多哥",
        "Taiwan": "多哥",
        "Hongkong": "多哥",
        "Memo": ""
    },
    "THA": {
        "ISO2": "TH",
        "ISO3": "THA",
        "DIGITS": "764",
        "ISO-3166-2": "ISO 3166-2:TH",
        "en": "Thailand",
        "zh": "泰国",
        "Taiwan": "泰國",
        "Hongkong": "泰國",
        "Memo": ""
    },
    "TJK": {
        "ISO2": "TJ",
        "ISO3": "TJK",
        "DIGITS": "762",
        "ISO-3166-2": "ISO 3166-2:TJ",
        "en": "Tajikistan",
        "zh": "塔吉克斯坦",
        "Taiwan": "塔吉克",
        "Hongkong": "塔吉克",
        "Memo": "香港習慣略去「斯坦」後綴，有必要會用全稱"
    },
    "TKL": {
        "ISO2": "TK",
        "ISO3": "TKL",
        "DIGITS": "772",
        "ISO-3166-2": "ISO 3166-2:TK",
        "en": "Tokelau",
        "zh": "托克劳",
        "Taiwan": "托克勞群島",
        "Hongkong": "托克勞群島",
        "Memo": ""
    },
    "TLS": {
        "ISO2": "TL",
        "ISO3": "TLS",
        "DIGITS": "626",
        "ISO-3166-2": "ISO 3166-2:TP",
        "en": "Timor-Leste",
        "zh": "东帝汶",
        "Taiwan": "東帝汶",
        "Hongkong": "東帝汶",
        "Memo": ""
    },
    "TKM": {
        "ISO2": "TM",
        "ISO3": "TKM",
        "DIGITS": "795",
        "ISO-3166-2": "ISO 3166-2:TM",
        "en": "Turkmenistan",
        "zh": "土库曼斯坦",
        "Taiwan": "土庫曼",
        "Hongkong": "土庫曼",
        "Memo": "香港習慣略去「斯坦」後綴，有必要會用全稱"
    },
    "TUN": {
        "ISO2": "TN",
        "ISO3": "TUN",
        "DIGITS": "788",
        "ISO-3166-2": "ISO 3166-2:TN",
        "en": "Tunisia",
        "zh": "突尼斯",
        "Taiwan": "突尼西亞",
        "Hongkong": "突尼斯",
        "Memo": ""
    },
    "TON": {
        "ISO2": "TO",
        "ISO3": "TON",
        "DIGITS": "776",
        "ISO-3166-2": "ISO 3166-2:TO",
        "en": "Tonga",
        "zh": "汤加",
        "Taiwan": "東加",
        "Hongkong": "湯加",
        "Memo": ""
    },
    "TUR": {
        "ISO2": "TR",
        "ISO3": "TUR",
        "DIGITS": "792",
        "ISO-3166-2": "ISO 3166-2:TR",
        "en": "Turkey",
        "zh": "土耳其",
        "Taiwan": "土耳其",
        "Hongkong": "土耳其",
        "Memo": ""
    },
    "TTO": {
        "ISO2": "TT",
        "ISO3": "TTO",
        "DIGITS": "780",
        "ISO-3166-2": "ISO 3166-2:TT",
        "en": "Trinidad and Tobago",
        "zh": "特立尼达和多巴哥",
        "Taiwan": "千里達及托巴哥",
        "Hongkong": "千里達和多巴哥",
        "Memo": "台灣和香港均將之簡稱為「千里達」"
    },
    "TUV": {
        "ISO2": "TV",
        "ISO3": "TUV",
        "DIGITS": "798",
        "ISO-3166-2": "ISO 3166-2:TV",
        "en": "Tuvalu",
        "zh": "图瓦卢",
        "Taiwan": "吐瓦鲁",
        "Hongkong": "圖瓦盧",
        "Memo": ""
    },
    "TWN": {
        "ISO2": "TW",
        "ISO3": "TWN",
        "DIGITS": "158",
        "ISO-3166-2": "ISO 3166-2:TW",
        "en": "Taiwan, Province of China",
        "zh": "台湾",
        "Taiwan": "台灣；\r\n臺灣；\r\n中華民國",
        "Hongkong": "台湾；\r\n臺灣",
        "Memo": "因历史、政治原因，ISO官方称之为“Taiwan, Province of China”[1]。台灣的國際政治地位可參見未被國際普遍承認的國家列表、台海現狀以及舊金山條約，但臺灣官方仍稱為中華民國或中華民國（臺灣）。"
    },
    "TZA": {
        "ISO2": "TZ",
        "ISO3": "TZA",
        "DIGITS": "834",
        "ISO-3166-2": "ISO 3166-2:TZ",
        "en": "Tanzania, United Republic of",
        "zh": "坦桑尼亚",
        "Taiwan": "坦尚尼亞",
        "Hongkong": "坦桑尼亞",
        "Memo": ""
    },
    "UKR": {
        "ISO2": "UA",
        "ISO3": "UKR",
        "DIGITS": "804",
        "ISO-3166-2": "ISO 3166-2:UA",
        "en": "Ukraine",
        "zh": "乌克兰",
        "Taiwan": "烏克蘭",
        "Hongkong": "烏克蘭",
        "Memo": ""
    },
    "UGA": {
        "ISO2": "UG",
        "ISO3": "UGA",
        "DIGITS": "800",
        "ISO-3166-2": "ISO 3166-2:UG",
        "en": "Uganda",
        "zh": "乌干达",
        "Taiwan": "烏干達",
        "Hongkong": "烏干達",
        "Memo": ""
    },
    "UMI": {
        "ISO2": "UM",
        "ISO3": "UMI",
        "DIGITS": "581",
        "ISO-3166-2": "ISO 3166-2:UM",
        "en": "United States Minor Outlying Islands",
        "zh": "美国本土外小岛屿",
        "Taiwan": "美國邊疆小島",
        "Hongkong": "美國海外小島",
        "Memo": "台灣亦普遍採用「美國外島」一詞於其它場合（如MSN台灣）"
    },
    "USA": {
        "ISO2": "US",
        "ISO3": "USA",
        "DIGITS": "840",
        "ISO-3166-2": "ISO 3166-2:US",
        "en": "United States of America",
        "zh": "美国",
        "Taiwan": "美國",
        "Hongkong": "美國",
        "Memo": ""
    },
    "URY": {
        "ISO2": "UY",
        "ISO3": "URY",
        "DIGITS": "858",
        "ISO-3166-2": "ISO 3166-2:UY",
        "en": "Uruguay",
        "zh": "乌拉圭",
        "Taiwan": "烏拉圭",
        "Hongkong": "烏拉圭",
        "Memo": ""
    },
    "UZB": {
        "ISO2": "UZ",
        "ISO3": "UZB",
        "DIGITS": "860",
        "ISO-3166-2": "ISO 3166-2:UZ",
        "en": "Uzbekistan",
        "zh": "乌兹别克斯坦",
        "Taiwan": "烏茲別克",
        "Hongkong": "烏茲別克",
        "Memo": "香港習慣略去「斯坦」後綴，有必要會用全稱"
    },
    "VAT": {
        "ISO2": "VA",
        "ISO3": "VAT",
        "DIGITS": "336",
        "ISO-3166-2": "ISO 3166-2:VA",
        "en": "Holy See",
        "zh": "梵蒂冈",
        "Taiwan": "梵蒂岡",
        "Hongkong": "梵蒂岡",
        "Memo": ""
    },
    "VCT": {
        "ISO2": "VC",
        "ISO3": "VCT",
        "DIGITS": "670",
        "ISO-3166-2": "ISO 3166-2:VC",
        "en": "Saint Vincent and the Grenadines",
        "zh": "圣文森特和格林纳丁斯",
        "Taiwan": "聖文森及格瑞那丁",
        "Hongkong": "聖文森特和格林納丁斯",
        "Memo": "台灣將之簡稱為「聖文森」"
    },
    "VEN": {
        "ISO2": "VE",
        "ISO3": "VEN",
        "DIGITS": "862",
        "ISO-3166-2": "ISO 3166-2:VE",
        "en": "Venezuela, Bolivarian Republic of",
        "zh": "委内瑞拉",
        "Taiwan": "委內瑞拉",
        "Hongkong": "委內瑞拉",
        "Memo": ""
    },
    "VGB": {
        "ISO2": "VG",
        "ISO3": "VGB",
        "DIGITS": "092",
        "ISO-3166-2": "ISO 3166-2:VG",
        "en": "Virgin Islands, British",
        "zh": "英属维京群岛",
        "Taiwan": "英屬維爾京群島",
        "Hongkong": "英屬處女群島",
        "Memo": ""
    },
    "VIR": {
        "ISO2": "VI",
        "ISO3": "VIR",
        "DIGITS": "850",
        "ISO-3166-2": "ISO 3166-2:VI",
        "en": "Virgin Islands, U.S.",
        "zh": "美属维京群岛",
        "Taiwan": "美屬維爾京群島",
        "Hongkong": "美屬處女群島",
        "Memo": ""
    },
    "VNM": {
        "ISO2": "VN",
        "ISO3": "VNM",
        "DIGITS": "704",
        "ISO-3166-2": "ISO 3166-2:VN",
        "en": "Viet Nam",
        "zh": "越南",
        "Taiwan": "越南",
        "Hongkong": "越南",
        "Memo": ""
    },
    "VUT": {
        "ISO2": "VU",
        "ISO3": "VUT",
        "DIGITS": "548",
        "ISO-3166-2": "ISO 3166-2:VU",
        "en": "Vanuatu",
        "zh": "瓦努阿图",
        "Taiwan": "萬那杜",
        "Hongkong": "瓦努阿圖",
        "Memo": "亦有部份人士使用「溫納圖」一詞於港澳地區"
    },
    "WLF": {
        "ISO2": "WF",
        "ISO3": "WLF",
        "DIGITS": "876",
        "ISO-3166-2": "ISO 3166-2:WF",
        "en": "Wallis and Futuna",
        "zh": "瓦利斯和富图纳",
        "Taiwan": "沃里斯與伏塔那島",
        "Hongkong": "瓦利斯群島和富圖納群島",
        "Memo": ""
    },
    "WSM": {
        "ISO2": "WS",
        "ISO3": "WSM",
        "DIGITS": "882",
        "ISO-3166-2": "ISO 3166-2:WS",
        "en": "Samoa",
        "zh": "萨摩亚",
        "Taiwan": "薩摩亞",
        "Hongkong": "薩摩亞",
        "Memo": ""
    },
    "YEM": {
        "ISO2": "YE",
        "ISO3": "YEM",
        "DIGITS": "887",
        "ISO-3166-2": "ISO 3166-2:YE",
        "en": "Yemen",
        "zh": "也门",
        "Taiwan": "葉門",
        "Hongkong": "也門",
        "Memo": ""
    },
    "MYT": {
        "ISO2": "YT",
        "ISO3": "MYT",
        "DIGITS": "175",
        "ISO-3166-2": "ISO 3166-2:YT",
        "en": "Mayotte",
        "zh": "马约特",
        "Taiwan": "美亞特",
        "Hongkong": "馬約特",
        "Memo": ""
    },
    "ZAF": {
        "ISO2": "ZA",
        "ISO3": "ZAF",
        "DIGITS": "710",
        "ISO-3166-2": "ISO 3166-2:ZA",
        "en": "South Africa",
        "zh": "南非",
        "Taiwan": "南非",
        "Hongkong": "南非",
        "Memo": ""
    },
    "ZMB": {
        "ISO2": "ZM",
        "ISO3": "ZMB",
        "DIGITS": "894",
        "ISO-3166-2": "ISO 3166-2:ZM",
        "en": "Zambia",
        "zh": "赞比亚",
        "Taiwan": "尚比亞",
        "Hongkong": "贊比亞",
        "Memo": ""
    },
    "ZWE": {
        "ISO2": "ZW",
        "ISO3": "ZWE",
        "DIGITS": "716",
        "ISO-3166-2": "ISO 3166-2:ZW",
        "en": "Zimbabwe",
        "zh": "津巴布韦",
        "Taiwan": "辛巴威",
        "Hongkong": "津巴布韋",
        "Memo": ""
    }
}